{
  "exclude": [
    "node_modules"
  ],
  "compilerOptions": {
    "baseUrl": ".",
    "paths": {
      "__testdata__/*": ["./__testdata__/*"],
      "components/*": ["./components/*"],
      "constants/*": ["./constants/*"],
      "context/*": ["./context/*"],
      "core/*": ["./core/*"],
      "helpers/*": ["./helpers/*"],
      "layout/*": ["./layout/*"],
      "libraries/*": ["./libraries/*"],
      "pages/*": ["./pages/*"],
      "requests/*": ["./requests/*"],
      "services/*": ["./services/*"],
      "styles/*": ["./styles/*"]
    },
    "experimentalDecorators": true
  },
  "typeAcquisition": {
    "include": ["jest"]
  }
}