<?xml version="1.0" encoding="utf-8"?>
<!-- Generator: Adobe Illustrator 22.1.0, SVG Export Plug-In . SVG Version: 6.00 Build 0) -->
<svg
    version="1.1"
    id="svg2"
    xmlns:cc="http://creativecommons.org/ns#"
    xmlns:dc="http://purl.org/dc/elements/1.1/"
    xmlns:inkscape="http://www.inkscape.org/namespaces/inkscape"
    xmlns:rdf="http://www.w3.org/1999/02/22-rdf-syntax-ns#"
    xmlns:sodipodi="http://sodipodi.sourceforge.net/DTD/sodipodi-0.dtd"
    xmlns:svg="http://www.w3.org/2000/svg"
    xmlns="http://www.w3.org/2000/svg"
    xmlns:xlink="http://www.w3.org/1999/xlink"
    x="0px" y="0px"
    viewBox="0 0 240 240"
    enable-background="new 0 0 240 240"
    xml:space="preserve"
>
    <path
        id="path11733"
        fill="#253e9a"
        d=" M119.97,0C53.693,0,0,53.694,0,119.97S53.693,240,119.97,240c24.806,0,47.854-7.564,66.985-20.458h-1.388l-50.933-40.493v34.277 c-4.654,0.615-9.38,0.884-14.242,0.905c-13.028-0.043-25.226-2.165-36.691-6.638c-11.421-4.69-21.438-11.215-29.992-19.552 c-8.598-8.381-15.386-18.526-20.337-30.294c-9.2-25.69-10.801-51.199-0.483-75.977c4.951-11.768,11.739-21.913,20.337-30.294 c8.642-8.338,18.726-14.862,30.234-19.552c11.464-4.69,23.663-7,36.691-7c13.028,0,25.226,2.31,36.691,7 c11.508,4.69,21.652,11.215,30.294,19.552c8.598,8.295,15.386,18.251,20.337,29.932c4.994,11.725,7.5,24.451,7.543,38.26 c0.043,13.81-2.455,26.595-7.362,38.32c-3.6,8.493-8.111,16.048-13.638,22.751l-24.079-18.104 c3.873-4.918,7.186-10.484,9.716-16.595c3.344-8.121,4.932-17.211,4.888-27.156c0.043-9.945-1.544-18.915-4.888-27.036 c-3.344-8.121-7.95-15.044-13.638-20.82c-5.732-5.732-12.52-10.21-20.337-13.337c-7.817-3.127-16.388-4.707-25.768-4.707 c-9.38,0-17.952,1.581-25.768,4.707c-7.817,3.127-14.665,7.605-20.397,13.337c-5.732,5.776-10.21,12.699-13.337,20.82 c-3.127,8.121-4.586,17.091-4.586,27.036v0.603c0,9.858,1.46,18.7,4.586,26.734c3.127,8.077,7.604,15.189,13.337,21.182 c5.732,5.949,12.58,10.555,20.397,13.638c4.03,1.612,8.295,2.742,12.733,3.5v-28.182v-33.794l101.142,78.934 C227.83,180.097,240,151.436,240,119.97C240,53.693,186.246,0,119.97,0L119.97,0z"
    />
</svg>
