<?xml version="1.0" encoding="UTF-8" standalone="no"?>
<!-- Created with Inkscape (http://www.inkscape.org/) -->

<svg
   xmlns:dc="http://purl.org/dc/elements/1.1/"
   xmlns:cc="http://creativecommons.org/ns#"
   xmlns:rdf="http://www.w3.org/1999/02/22-rdf-syntax-ns#"
   xmlns:svg="http://www.w3.org/2000/svg"
   xmlns="http://www.w3.org/2000/svg"
   xmlns:sodipodi="http://sodipodi.sourceforge.net/DTD/sodipodi-0.dtd"
   xmlns:inkscape="http://www.inkscape.org/namespaces/inkscape"
   version="1.1"
   id="svg29"
   xml:space="preserve"
   width="60"
   height="16"
   viewBox="0 0 60 16"
   sodipodi:docname="Sparqa Legal - White_v4.svg"
   inkscape:version="0.92.3 (2405546, 2018-03-11)"><metadata
     id="metadata35"><rdf:RDF><cc:Work
         rdf:about=""><dc:format>image/svg+xml</dc:format><dc:type
           rdf:resource="http://purl.org/dc/dcmitype/StillImage" /><dc:title></dc:title></cc:Work></rdf:RDF></metadata><defs
     id="defs33"><clipPath
       clipPathUnits="userSpaceOnUse"
       id="clipPath45"><path
         d="M 0,960 H 2400 V 0 H 0 Z"
         id="path43"
         inkscape:connector-curvature="0" /></clipPath></defs><sodipodi:namedview
     pagecolor="#ffffff"
     bordercolor="#666666"
     borderopacity="1"
     objecttolerance="10"
     gridtolerance="10"
     guidetolerance="10"
     inkscape:pageopacity="0"
     inkscape:pageshadow="2"
     inkscape:window-width="1871"
     inkscape:window-height="1145"
     id="namedview31"
     showgrid="false"
     inkscape:pagecheckerboard="true"
     fit-margin-left="200"
     fit-margin-right="200"
     scale-x="1"
     inkscape:zoom="15.57"
     inkscape:cx="30.534194"
     inkscape:cy="22.062118"
     inkscape:window-x="1969"
     inkscape:window-y="27"
     inkscape:window-maximized="1"
     inkscape:current-layer="g37" /><g
     id="g37"
     inkscape:groupmode="layer"
     inkscape:label="Sparqa Legal - White_1"
     transform="matrix(1.3333333,0,0,-1.3333333,0,16)"><g
       id="g39"
       transform="matrix(0.02608984,0,0,0.02608984,-8.8820115,-6.6366544)"><g
         id="g41"
         clip-path="url(#clipPath45)"><g
           id="g47"
           transform="translate(999.0181,588.3174)"><path
             d="m 0,0 0.864,1.19 c -1.152,5.654 -3.167,10.712 -6.046,15.176 -2.879,4.463 -6.334,8.331 -10.365,11.307 -4.03,2.975 -8.637,5.356 -13.531,6.844 -4.895,1.488 -10.077,2.38 -15.547,2.38 -11.228,0 -20.441,-2.678 -27.351,-7.736 -6.909,-5.059 -10.364,-11.903 -10.364,-20.234 0,-5.059 1.439,-9.225 4.319,-12.796 2.878,-3.57 6.621,-6.546 11.516,-9.224 4.894,-2.678 10.364,-5.058 16.41,-7.141 6.046,-2.083 12.38,-4.166 19.002,-6.249 7.197,-2.381 14.682,-5.059 22.456,-8.332 7.773,-3.273 14.683,-7.142 21.017,-11.902 6.334,-4.762 11.516,-10.713 15.547,-17.556 4.031,-6.845 6.046,-15.176 6.046,-24.996 0,-8.927 -1.728,-17.258 -5.471,-24.995 -3.742,-7.736 -8.924,-14.283 -15.546,-19.937 -6.622,-5.653 -14.395,-9.819 -23.608,-12.795 -9.213,-2.678 -19.29,-4.166 -30.518,-4.166 -10.652,0 -20.441,1.488 -29.366,4.166 -8.925,2.976 -16.698,7.142 -23.32,12.498 -6.622,5.356 -12.38,11.902 -16.986,19.341 -4.607,7.439 -8.062,15.771 -10.077,24.995 l 30.518,8.63 c 0.863,-5.356 2.591,-10.415 5.182,-15.473 2.591,-5.059 6.046,-9.522 10.365,-13.391 4.318,-3.868 9.5,-6.844 15.258,-9.224 5.758,-2.38 12.38,-3.571 19.577,-3.571 12.956,0 23.033,2.976 30.23,8.927 7.198,5.951 10.653,13.39 10.653,22.317 0,6.547 -1.728,11.903 -5.182,16.069 -3.455,4.166 -8.062,7.736 -13.82,10.712 -5.758,2.976 -12.092,5.653 -19.289,7.736 -7.198,2.083 -14.395,4.464 -21.593,6.844 -6.046,2.083 -12.38,4.464 -19.001,7.142 -6.623,2.678 -12.668,6.249 -18.139,10.414 -5.469,4.166 -10.076,9.522 -13.531,15.771 -3.455,6.249 -5.182,13.986 -5.182,23.21 0,8.034 1.727,15.771 5.182,22.912 3.455,7.142 8.349,13.39 14.683,18.746 6.334,5.357 13.82,9.523 22.457,12.498 8.636,2.976 18.137,4.464 28.502,4.464 9.501,0 18.425,-1.488 26.487,-4.166 C -9.5,57.727 -2.015,53.858 4.606,49.098 11.228,44.336 16.698,38.385 21.017,31.542 25.335,24.697 28.502,16.961 30.518,8.629 Z"
             style="fill:#ffffff;fill-opacity:1;fill-rule:nonzero;stroke:none"
             id="path49"
             inkscape:connector-curvature="0" /></g><g
           id="g51"
           transform="translate(1135.4678,543.6832)"><path
             d="m 0,0 c 14.107,0 25.047,3.273 32.533,9.819 7.486,6.547 11.228,15.771 11.228,27.376 0,12.2 -3.742,21.425 -11.516,27.673 C 24.472,71.117 13.819,74.39 0,74.39 H -34.261 V 0 Z m 0.576,105.336 -0.288,-0.594 c 23.896,0 42.609,-5.952 56.141,-17.854 C 69.96,74.985 76.87,58.322 76.87,36.897 76.87,15.473 70.248,-1.19 56.717,-13.093 43.186,-24.996 24.472,-30.947 0.576,-30.947 h -34.837 v -72.01 h -31.957 v 208.293 z"
             style="fill:#ffffff;fill-opacity:1;fill-rule:nonzero;stroke:none"
             id="path53"
             inkscape:connector-curvature="0" /></g><g
           id="g55"
           transform="translate(1342.3203,516.9024)"><path
             d="m 0,0 -25.911,64.869 c -1.151,2.677 -2.303,5.653 -3.454,8.926 -1.153,3.273 -2.016,6.249 -2.88,8.927 -0.863,2.678 -1.727,5.059 -2.303,6.844 l -0.864,2.678 h -0.287 l -0.864,-2.678 c -0.576,-1.785 -1.44,-3.868 -2.303,-6.546 -0.864,-2.678 -1.728,-5.654 -2.879,-8.927 -1.152,-3.273 -2.304,-6.249 -3.455,-8.927 L -71.111,0 Z m 11.517,-29.161 h -94.145 l -18.714,-47.015 h -34.26 l 85.219,207.996 h 29.654 L 64.49,-76.176 H 30.23 Z"
             style="fill:#ffffff;fill-opacity:1;fill-rule:nonzero;stroke:none"
             id="path57"
             inkscape:connector-curvature="0" /></g><g
           id="g59"
           transform="translate(1507.2744,544.2779)"><path
             d="m 0,0 0.288,-0.297 c 13.531,0 23.608,3.57 30.23,10.712 6.622,7.141 10.077,16.068 10.077,26.483 0,10.712 -3.455,19.639 -10.366,26.483 C 23.32,70.225 13.243,73.795 0,73.795 H -37.715 V 0 Z m 45.489,-103.551 -42.898,74.39 c -0.863,-0.297 -1.727,-0.297 -2.879,-0.297 h -3.167 -33.972 v -74.093 h -31.958 v 207.995 h 65.93 c 12.093,0 23.032,-1.487 32.533,-4.761 C 38.579,96.41 46.641,91.947 53.262,85.996 59.884,80.044 65.066,72.903 68.521,64.571 71.976,56.239 73.703,47.015 73.703,36.6 73.703,22.02 70.248,9.522 63.339,-0.595 56.429,-10.712 46.641,-18.151 33.685,-23.209 l 47.792,-80.342 z"
             style="fill:#ffffff;fill-opacity:1;fill-rule:nonzero;stroke:none"
             id="path61"
             inkscape:connector-curvature="0" /></g><g
           id="g63"
           transform="translate(1980.373,516.9024)"><path
             d="m 0,0 -25.911,64.869 c -1.151,2.677 -2.303,5.653 -3.454,8.926 -1.153,3.273 -2.016,6.249 -2.88,8.927 -0.863,2.678 -1.727,5.059 -2.303,6.844 l -0.864,2.678 h -0.287 l -0.864,-2.678 c -0.576,-1.785 -1.44,-3.868 -2.303,-6.546 -0.864,-2.678 -1.728,-5.654 -2.879,-8.927 -1.152,-3.273 -2.304,-6.249 -3.455,-8.927 L -71.111,0 Z m 11.517,-29.161 h -94.145 l -18.714,-47.015 h -34.26 l 85.219,207.996 h 29.654 L 64.49,-76.176 H 30.23 Z"
             style="fill:#ffffff;fill-opacity:1;fill-rule:nonzero;stroke:none"
             id="path65"
             inkscape:connector-curvature="0" /></g><g
           id="g67"
           transform="translate(1803.4998,453.6036)"><path
             d="m 0,0 -15.081,11.933 -26.093,20.646 -4.662,3.689 -58.997,46.682 V 13.024 c -33.196,6.771 -58.334,37.412 -58.334,74.093 0,41.631 32.375,75.5 72.167,75.5 39.793,0 72.167,-33.869 72.167,-75.5 0,-18.528 -6.424,-35.508 -17.049,-48.66 L -9.708,17.934 c 15.519,18.697 24.875,42.83 24.875,69.183 0,59.371 -47.458,107.5 -106,107.5 -58.542,0 -106,-48.129 -106,-107.5 0,-54.116 39.432,-98.886 90.746,-106.387 4.982,-0.729 10.073,-1.113 15.254,-1.113 5.439,0 10.781,0.417 16,1.219 v 32.715 6.066 l 5.51,-4.514 28.085,-23.009 21.738,-17.81 h 52 z"
             style="fill:#ffffff;fill-opacity:1;fill-rule:nonzero;stroke:none"
             id="path69"
             inkscape:connector-curvature="0" /></g><g
           id="g71"
           transform="translate(604.1555,368.1722)"><path
             d="m 0,0 -8.79,7.11 v -9.553 -51.524 c -8.325,-1.262 -16.848,-1.918 -25.524,-1.918 -8.265,0 -16.387,0.605 -24.335,1.752 -81.857,11.814 -144.76,82.321 -144.76,167.548 0,93.502 75.706,169.3 169.095,169.3 93.388,0 169.095,-75.798 169.095,-169.3 0,-41.503 -14.925,-79.509 -39.682,-108.956 L 53.345,36.78 c 16.95,20.713 27.198,47.455 27.198,76.635 0,65.564 -51.644,118.904 -115.123,118.904 -63.479,0 -115.123,-53.34 -115.123,-118.904 0,-57.768 40.1,-106.024 93.055,-116.688 v 110.126 l 94.115,-73.52 7.437,-5.809 41.625,-32.516 24.057,-18.793 13.516,-10.558 c 37.287,39.979 57.742,91.777 57.742,146.725 0,57.518 -22.398,111.592 -63.069,152.263 -40.671,40.672 -94.746,63.07 -152.264,63.07 -57.518,0 -111.592,-22.398 -152.263,-63.07 -40.672,-40.671 -63.07,-94.745 -63.07,-152.263 0,-57.517 22.398,-111.593 63.07,-152.264 40.671,-40.671 94.745,-63.069 152.263,-63.069 42.305,0 82.741,12.131 117.357,34.724 z"
             style="fill:#ffffff;fill-opacity:1;fill-rule:nonzero;stroke:none"
             id="path73"
             inkscape:connector-curvature="0" /></g><g
           id="g75"
           transform="translate(1537.4189,304.189)"><path
             d="M 0,0 V -17.45 H -78.344 V 100 h 18.463 V 0 Z"
             style="fill:#ffffff;fill-opacity:1;fill-rule:nonzero;stroke:none"
             id="path77"
             inkscape:connector-curvature="0" /></g><g
           id="g79"
           transform="translate(1648.6934,304.189)"><path
             d="M 0,0 V -17.45 H -81.006 V 100 H -0.998 V 82.55 H -62.543 V 52.014 h 49.069 V 35.571 H -62.543 V 0 Z"
             style="fill:#ffffff;fill-opacity:1;fill-rule:nonzero;stroke:none"
             id="path81"
             inkscape:connector-curvature="0" /></g><g
           id="g83"
           transform="translate(1777.9316,301.5045)"><path
             d="m 0,0 -0.831,-1.342 c -1.497,-1.846 -3.493,-3.692 -5.988,-5.705 -2.495,-2.014 -5.324,-3.859 -8.65,-5.537 -3.327,-1.678 -6.986,-2.852 -11.144,-4.027 -4.158,-1.174 -8.484,-1.678 -13.141,-1.678 -8.316,0 -16.135,1.51 -23.453,4.363 -7.319,3.02 -13.64,7.215 -19.129,12.584 -5.489,5.369 -9.813,11.912 -12.975,19.463 -3.16,7.55 -4.657,15.772 -4.657,24.664 0,8.893 1.663,17.114 4.824,24.665 3.161,7.55 7.485,14.094 12.974,19.463 5.489,5.369 11.977,9.564 19.295,12.584 7.319,3.02 15.137,4.53 23.454,4.53 11.81,-0.168 22.289,-3.02 31.438,-8.557 9.148,-5.537 16.3,-12.92 21.457,-22.148 L -5.322,68.289 c -3.493,5.537 -8.318,9.899 -14.472,13.087 -6.154,3.188 -12.642,4.698 -19.627,4.698 -5.988,0 -11.477,-1.007 -16.634,-3.02 -5.156,-2.013 -9.481,-4.866 -13.14,-8.725 -3.659,-3.859 -6.488,-8.389 -8.484,-13.591 -1.996,-5.201 -2.994,-10.905 -2.994,-17.281 0,-6.544 1.165,-12.416 3.327,-17.618 2.162,-5.201 5.157,-9.732 8.982,-13.423 3.826,-3.691 8.317,-6.543 13.473,-8.557 5.157,-2.013 10.812,-3.02 16.8,-3.02 5.323,0 10.147,0.671 14.472,2.014 4.324,1.342 8.15,3.188 11.31,5.369 3.161,2.181 5.823,4.529 7.985,7.047 2.162,2.516 3.659,5.033 4.657,7.382 V 32.55 H -33.6 V 47.819 H 16.135 V -14.933 H 0.167 V -3.188 0 Z"
             style="fill:#ffffff;fill-opacity:1;fill-rule:nonzero;stroke:none"
             id="path85"
             inkscape:connector-curvature="0" /></g><g
           id="g87"
           transform="translate(1896.5215,329.6924)"><path
             d="m 0,0 -14.97,36.577 c -0.665,1.51 -1.331,3.188 -1.996,5.034 -0.665,1.846 -1.164,3.523 -1.663,5.034 -0.499,1.509 -0.998,2.852 -1.331,3.858 l -0.499,1.511 h -0.166 l -0.499,-1.511 c -0.333,-1.006 -0.832,-2.181 -1.331,-3.691 -0.499,-1.51 -0.998,-3.188 -1.663,-5.033 -0.665,-1.846 -1.331,-3.524 -1.996,-5.034 L -41.085,0 Z m 6.654,-16.443 h -54.392 l -10.812,-26.51 h -19.794 l 49.236,117.282 h 17.132 L 37.26,-42.953 H 17.466 Z"
             style="fill:#ffffff;fill-opacity:1;fill-rule:nonzero;stroke:none"
             id="path89"
             inkscape:connector-curvature="0" /></g><g
           id="g91"
           transform="translate(2041.0615,304.189)"><path
             d="M 0,0 V -17.45 H -78.344 V 100 h 18.463 V 0 Z"
             style="fill:#ffffff;fill-opacity:1;fill-rule:nonzero;stroke:none"
             id="path93"
             inkscape:connector-curvature="0" /></g></g></g></g></svg>