<?xml version="1.0" encoding="UTF-8"?>
<svg width="128px" height="128px" viewBox="0 0 128 128" version="1.1" xmlns="http://www.w3.org/2000/svg" xmlns:xlink="http://www.w3.org/1999/xlink">
    <!-- Generator: Sketch 64 (93537) - https://sketch.com -->
    <title>Icons / 128px / Toolkit opt 4</title>
    <desc>Created with Sketch.</desc>
    <g id="Icons-/-128px-/-Toolkit-opt-4" stroke="none" stroke-width="1" fill="none" fill-rule="evenodd">
        <circle id="Oval" fill="#14BBC4" cx="64" cy="64" r="64"></circle>
        <rect id="Rectangle" stroke="#FFFFFF" stroke-width="2" transform="translate(64.000000, 70.000000) scale(1, -1) translate(-64.000000, -70.000000) " x="21" y="40" width="86" height="60" rx="4"></rect>
        <path d="M74,27 C77.3137085,27 80,29.6862915 80,33 L80,39 L76,39 L76,33 C76,31.8954305 75.1045695,31 74,31 L74,31 L54,31 C52.8954305,31 52,31.8954305 52,33 L52,33 L52,39 L48,39 L48,33 C48,29.6862915 50.6862915,27 54,27 L74,27 Z" id="Combined-Shape" fill="#FFFFFF"></path>
        <line x1="23" y1="52" x2="105" y2="52" id="Line" stroke="#FFFFFF" stroke-width="2" stroke-linecap="square"></line>
        <path d="M60,83.5 C60,82.6715729 60.6715729,82 61.5,82 L63,82 L63,63 C63,62.3333333 62.6666667,61 62,59 L62,59 L62.8607332,53.835601 C62.9410978,53.353413 63.3582879,53 63.8471271,53 L65.1528729,53 C65.6417121,53 66.0589022,53.353413 66.1392668,53.835601 L67,59 C66.3333333,60.3333333 66,61.6666667 66,63 L66,63 L66,82 L67.5,82 C68.3284271,82 69,82.6715729 69,83.5 C69,84.3284271 68.3284271,85 67.5,85 L68,85 C68.5522847,85 69,85.4477153 69,86 L69,95 C69,97.209139 67.209139,99 65,99 L64,99 C61.790861,99 60,97.209139 60,95 L60,86 C60,85.4477153 60.4477153,85 61,85 L61.5,85 C60.6715729,85 60,84.3284271 60,83.5 Z" id="Combined-Shape" fill="#FFFFFF" transform="translate(64.500000, 76.000000) rotate(45.000000) translate(-64.500000, -76.000000) "></path>
        <path d="M67.0004441,53.0005351 C68.7936033,53.9515689 70,55.7288891 70,57.7644975 C70,60.1590576 68.330628,62.1962068 66.0005093,62.951372 L66.0005324,89.4162763 C67.7661528,90.1879545 69,91.949887 69,94 C69,96.7614237 66.7614237,99 64,99 C61.2385763,99 59,96.7614237 59,94 C59,91.9495025 60.23431,90.1872936 62.0004611,89.4158423 L62.0004967,62.9516979 C59.6698525,62.1967931 58,60.1594022 58,57.7644975 C58,55.7285072 59.2068493,53.9509022 61.000565,53 L61,57.795937 C61,58.1313902 61.1682029,58.4444943 61.4478753,58.6297298 C62.0869943,59.0529083 62.9377026,59.2644975 64,59.2644975 C65.0622612,59.2644975 65.9129477,59.0529227 66.5520593,58.6297731 C66.7968196,58.4677197 66.956209,58.2077241 66.9922276,57.9205116 L67,57.7959604 L67.0004441,53.0005351 Z M64,91 C62.3431458,91 61,92.3431458 61,94 C61,95.6568542 62.3431458,97 64,97 C65.6568542,97 67,95.6568542 67,94 C67,92.3431458 65.6568542,91 64,91 Z" id="Combined-Shape" fill="#FFFFFF" transform="translate(64.000000, 76.000000) rotate(-45.000000) translate(-64.000000, -76.000000) "></path>
    </g>
</svg>