<?xml version="1.0" encoding="UTF-8"?>
<svg width="48px" height="48px" viewBox="0 0 48 48" version="1.1" xmlns="http://www.w3.org/2000/svg" xmlns:xlink="http://www.w3.org/1999/xlink">
    <!-- Generator: Sketch 54.1 (76490) - https://sketchapp.com -->
    <title>Icons / 48px / Company Admin</title>
    <desc>Created with Sketch.</desc>
    <g id="Icons-/-48px-/-Company-Admin" stroke="none" stroke-width="1" fill="none" fill-rule="evenodd" stroke-linecap="round">
        <path d="M3.5,3 L22.6896552,3 L32,12 L32,43.5 C32,44.3284271 31.3284271,45 30.5,45 L3.5,45 C2.67157288,45 2,44.3284271 2,43.5 L2,4.5 C2,3.67157288 2.67157288,3 3.5,3 Z" id="Rectangle-path" stroke-width="2" stroke-linejoin="round"></path>
        <path d="M39.2518107,13.623956 C38.2833822,13.6264035 37.3560366,14.0242986 36.6759154,14.7291922 C35.9957942,15.4340858 35.6192587,16.387564 35.6300097,17.3776758 L35.6271813,38.2906382 L39.247568,44.623956 L42.8700761,38.2899152 L42.8729045,17.3769528 C42.8842752,16.3868452 42.5080152,15.4331843 41.8278928,14.7282876 C41.1477705,14.0233909 40.2202434,13.6257726 39.2518107,13.623956 L39.2518107,13.623956 Z" id="Shape" stroke-width="2" stroke-linejoin="round"></path>
        <polyline id="Shape" stroke-width="2" stroke-linejoin="round" points="35.6271813 38.4297006 39.2489822 36.9744748 42.8693689 38.4226295"></polyline>
        <path d="M32,12 L24.032884,12 C22.9101532,12 22,11.1808621 22,10.1704044 L22,3" id="Rectangle-path" stroke-width="2" stroke-linejoin="round"></path>
        <path d="M7,20.5 L27,20.5" id="Line" stroke-width="2"></path>
        <path d="M7,26.5 L18,26.5" id="Line" stroke-width="2"></path>
        <path d="M36,19 L42.8693689,19" id="Line" stroke-width="2"></path>
    </g>
</svg>
