<?xml version="1.0" encoding="UTF-8"?>
<svg width="48px" height="48px" viewBox="0 0 48 48" version="1.1" xmlns="http://www.w3.org/2000/svg" xmlns:xlink="http://www.w3.org/1999/xlink">
    <!-- Generator: Sketch 54.1 (76490) - https://sketchapp.com -->
    <title>Icons / 48px / Data Protection &amp; GDPR</title>
    <desc>Created with Sketch.</desc>
    <g id="Icons-/-48px-/-Data-Protection-&amp;-GDPR" stroke="none" stroke-width="1" fill="none" fill-rule="evenodd">
        <path d="M40,43 L40,46" id="Path-7" stroke-width="2" stroke-linecap="round"></path>
        <path d="M8,43 L8,46" id="Path-7" stroke-width="2" stroke-linecap="round"></path>
        <circle id="Oval" stroke-width="2" transform="translate(37.000000, 24.000000) rotate(-90.000000) translate(-37.000000, -24.000000) " cx="37" cy="24" r="2"></circle>
        <path d="M37,26 L37,29" id="Path" stroke-width="2" stroke-linecap="round"></path>
        <path d="M18,19 L18,24" id="Path" stroke-width="2" stroke-linecap="round"></path>
        <rect id="Rectangle-path" stroke-width="2" x="5" y="5" width="40" height="38" rx="3"></rect>
        <circle id="Oval" stroke-width="2" cx="18" cy="25" r="6"></circle>
        <rect id="Rectangle-path" stroke-width="2" fill="#FFFFFF" x="3" y="30" width="4" height="8" rx="2"></rect>
        <rect id="Rectangle-path" stroke-width="2" fill="#FFFFFF" x="3" y="10" width="4" height="8" rx="2"></rect>
    </g>
</svg>
