<?xml version="1.0" encoding="UTF-8"?>
<svg width="48px" height="48px" viewBox="0 0 48 48" version="1.1" xmlns="http://www.w3.org/2000/svg" xmlns:xlink="http://www.w3.org/1999/xlink">
    <!-- Generator: Sketch 54.1 (76490) - https://sketchapp.com -->
    <title>Icons / 48px / Financing a Business</title>
    <desc>Created with Sketch.</desc>
    <g id="Icons-/-48px-/-Financing-a-Business" stroke="none" stroke-width="1" fill="none" fill-rule="evenodd" stroke-linecap="round" stroke-linejoin="round">
        <path d="M1.498,44.64 L44.998,44.64" id="Shape" stroke-width="2"></path>
        <path d="M5.498,36 L11,36 C11.5522847,36 12,36.4298066 12,36.96 L12,44.64 L4.498,44.64 L4.498,36.96 C4.498,36.4298066 4.94571525,36 5.498,36 Z" id="Shape" stroke-width="2"></path>
        <path d="M20.498,18.72 L26,18.72 C26.5522847,18.72 27,19.1498066 27,19.68 L27,44.64 L19.498,44.64 L19.498,19.68 C19.498,19.1498066 19.9457153,18.72 20.498,18.72 Z" id="Shape" stroke-width="2"></path>
        <path d="M35.498,27.36 L41,27.36 C41.5522847,27.36 42,27.7898066 42,28.32 L42,44.64 L34.5,44.64 L34.5,28.32 C34.4999989,27.7905555 34.9464965,27.3610589 35.498,27.36 Z" id="Shape" stroke-width="2"></path>
        <path d="M13.766,9.83232 L5.732,17.53728" id="Shape" stroke-width="2"></path>
        <path d="M28.622,12.144 L19.274,9.744" id="Shape" stroke-width="2"></path>
        <path d="M40.784,5.54496 L33.622,10.92288" id="Shape" stroke-width="2"></path>
        <ellipse id="Oval" stroke-width="2" cx="16.498" cy="8.64192" rx="3" ry="2.88"></ellipse>
        <ellipse id="Oval" stroke-width="2" cx="43.5" cy="4.32" rx="3" ry="2.88"></ellipse>
        <ellipse id="Oval" stroke-width="2" cx="31.5" cy="12.96" rx="3" ry="2.88"></ellipse>
        <ellipse id="Oval" stroke-width="2" cx="4.498" cy="20.16192" rx="3" ry="2.88"></ellipse>
    </g>
</svg>
