<?xml version="1.0" encoding="UTF-8"?>
<svg width="48px" height="48px" viewBox="0 0 48 48" version="1.1" xmlns="http://www.w3.org/2000/svg" xmlns:xlink="http://www.w3.org/1999/xlink">
    <!-- Generator: Sketch 54.1 (76490) - https://sketchapp.com -->
    <title>Icons / 48px / Late payments &amp; Disputes</title>
    <desc>Created with Sketch.</desc>
    <g id="Icons-/-48px-/-Late-payments-&amp;-Disputes" stroke="none" stroke-width="1" fill="none" fill-rule="evenodd" stroke-linecap="round" stroke-linejoin="round">
        <path d="M29.5554373,18.4447762 C24.9686472,19.2465118 21.0830545,22.4630286 19.494441,26.9665965 C19.3809276,27.2883961 19.2806646,27.6124507 19.1934568,27.9380742 C16.1012484,28.4786976 12.8414127,27.8999718 10.0507411,26.1633808 L2,30 L5.83327178,21.9422285 C3.32981419,17.916073 3.20594713,12.8474434 5.50974654,8.703603 C7.81354594,4.55976259 12.1822646,1.99318419 16.9202924,2.00002175 C22.4637153,1.98994075 27.4090708,5.48479581 29.254559,10.716579 C30.1534327,13.2648004 30.2214426,15.95442 29.5554373,18.4447762 Z" id="Combined-Shape" stroke-width="2"></path>
        <path d="M21,18 C21,20.209139 19.209139,21.9999999 17,22 C14.790861,21.9999999 13,20.209139 13,18" id="Shape" stroke-width="2" transform="translate(17.000000, 20.000000) scale(1, -1) translate(-17.000000, -20.000000) "></path>
        <path d="M11.5,13 C11.2238576,13 11,13.2238576 11,13.5 C11,13.7761424 11.2238576,14 11.5,14 C11.7761424,14 12,13.7761424 12,13.5 C12,13.2238576 11.7761424,13 11.5,13" id="Shape" stroke-width="2"></path>
        <path d="M22.5,13 C22.2238576,13 22,13.2238576 22,13.5 C22,13.7761424 22.2238576,14 22.5,14 C22.7761424,14 23,13.7761424 23,13.5 C23,13.2238576 22.7761424,13 22.5,13" id="Shape" stroke-width="2"></path>
        <path d="M33.6692924,18.2500392 C28.9312646,18.2432017 24.5625459,20.8097801 22.2587465,24.9536205 C19.9549471,29.0974609 20.0788142,34.1660905 22.5822718,38.192246 L18.749,46.2500175 L26.7997411,42.4133982 C31.507444,45.3429276 37.5502823,44.9774327 41.871252,41.5018133 C46.1922217,38.0261939 47.8490472,32.1983797 46.003559,26.9665965 C44.1580708,21.7348133 39.2127153,18.2399582 33.6692924,18.2500392 L33.6692924,18.2500392 Z" id="Shape" stroke-width="2" transform="translate(32.749000, 32.250017) scale(-1, 1) translate(-32.749000, -32.250017) "></path>
        <path d="M35.749,34.2500175 C35.749,36.4591564 33.958139,38.2500174 31.749,38.2500175 C29.539861,38.2500174 27.749,36.4591564 27.749,34.2500175" id="Shape" stroke-width="2" transform="translate(31.749000, 36.250017) scale(-1, -1) translate(-31.749000, -36.250017) "></path>
        <path d="M37.249,29.2500175 C36.9728576,29.2500175 36.749,29.4738751 36.749,29.7500175 C36.749,30.0261599 36.9728576,30.2500175 37.249,30.2500175 C37.5251424,30.2500175 37.749,30.0261599 37.749,29.7500175 C37.749,29.4738751 37.5251424,29.2500175 37.249,29.2500175" id="Shape" stroke-width="2" transform="translate(37.249000, 29.750017) scale(-1, 1) translate(-37.249000, -29.750017) "></path>
        <path d="M26.249,29.2500175 C25.9728576,29.2500175 25.749,29.4738751 25.749,29.7500175 C25.749,30.0261599 25.9728576,30.2500175 26.249,30.2500175 C26.5251424,30.2500175 26.749,30.0261599 26.749,29.7500175 C26.749,29.4738751 26.5251424,29.2500175 26.249,29.2500175" id="Shape" stroke-width="2" transform="translate(26.249000, 29.750017) scale(-1, 1) translate(-26.249000, -29.750017) "></path>
    </g>
</svg>
