<?xml version="1.0" encoding="UTF-8"?>
<svg width="48px" height="48px" viewBox="0 0 48 48" version="1.1" xmlns="http://www.w3.org/2000/svg" xmlns:xlink="http://www.w3.org/1999/xlink">
    <!-- Generator: Sketch 54.1 (76490) - https://sketchapp.com -->
    <title>Icons / 48px / Occupying Business premises</title>
    <desc>Created with Sketch.</desc>
    <g id="Icons-/-48px-/-Occupying-Business-premises" stroke="none" stroke-width="1" fill="none" fill-rule="evenodd">
        <polyline id="Path-2" stroke-width="2" stroke-linecap="round" stroke-linejoin="round" points="4 45 4 11 44 11 44 45"></polyline>
        <polyline id="Path-2" stroke-width="2" stroke-linecap="round" stroke-linejoin="round" points="14 45 14 35 34 35 34 45"></polyline>
        <circle id="Oval" cx="22" cy="40" r="1"></circle>
        <circle id="Oval" cx="26" cy="40" r="1"></circle>
        <rect id="Rectangle" stroke-width="2" stroke-linejoin="round" x="12" y="25" width="9" height="6"></rect>
        <rect id="Rectangle" stroke-width="2" stroke-linejoin="round" x="27" y="25" width="9" height="6"></rect>
        <rect id="Rectangle" stroke-width="2" stroke-linejoin="round" x="12" y="15" width="9" height="6"></rect>
        <rect id="Rectangle" stroke-width="2" stroke-linejoin="round" x="27" y="15" width="9" height="6"></rect>
        <path d="M2,45.5 L46,45.5" id="Path-3" stroke-width="2" stroke-linecap="round"></path>
        <path d="M17,2 L17,11" id="Path-4" stroke-width="2" stroke-linecap="round" stroke-linejoin="round"></path>
        <path d="M17,3 L23.5508177,3 C23.7202096,3.00004847 23.8742832,3.07487016 23.9461214,3.19196854 C24.0179595,3.30906693 24.0179595,6.69093307 23.9461214,6.80803146 C23.8742832,6.92512984 23.7202096,6.99995153 23.5508177,7 L17,7" id="Shape" stroke-width="2" stroke-linecap="round" stroke-linejoin="round"></path>
    </g>
</svg>
