<?xml version="1.0" encoding="UTF-8"?>
<svg width="48px" height="48px" viewBox="0 0 48 48" version="1.1" xmlns="http://www.w3.org/2000/svg" xmlns:xlink="http://www.w3.org/1999/xlink">
    <!-- Generator: Sketch 54.1 (76490) - https://sketchapp.com -->
    <title>Icons / 48px / Selling a business</title>
    <desc>Created with Sketch.</desc>
    <g id="Icons-/-48px-/-Selling-a-business" stroke="none" stroke-width="1" fill="none" fill-rule="evenodd">
        <circle id="Oval" stroke-width="2" stroke-linecap="round" stroke-linejoin="round" transform="translate(18.250000, 41.250000) scale(-1, 1) translate(-18.250000, -41.250000) " cx="18.25" cy="41.25" r="3.75"></circle>
        <path d="M1,33 L32.916,33 C34.4011213,33.0006623 35.6632121,31.9146179 35.884,30.446 L39.618,5.554 C39.8386752,4.0861323 41.0996372,3.0003276 42.584,3 L46,3" id="Shape" stroke-width="2" stroke-linecap="round" stroke-linejoin="round" transform="translate(23.500000, 18.000000) scale(-1, 1) translate(-23.500000, -18.000000) "></path>
        <circle id="Oval" stroke-width="2" stroke-linecap="round" stroke-linejoin="round" transform="translate(39.250000, 41.250000) scale(-1, 1) translate(-39.250000, -41.250000) " cx="39.25" cy="41.25" r="3.75"></circle>
        <circle id="Oval" stroke-width="2" cx="29.5" cy="16.5" r="13.5"></circle>
        <path d="M28.18,21.2 L34.44,21.2 L34.44,23.28 L24,23.28 L24,21.2 L25.64,21.2 L25.64,17.02 L24,17.02 L24,15.42 L25.64,15.42 L25.64,12.94 C25.64,12.1533294 25.8199982,11.4633363 26.18,10.87 C26.5400018,10.2766637 27.0466634,9.8166683 27.7,9.49 C28.3533366,9.1633317 29.113329,9 29.98,9 C30.846671,9 31.679996,9.1433319 32.48,9.43 C33.280004,9.7166681 33.9866636,10.126664 34.6,10.66 L33.74,12.52 C32.473327,11.5466618 31.2800056,11.06 30.16,11.06 C29.5199968,11.06 29.0300017,11.2366649 28.69,11.59 C28.3499983,11.9433351 28.18,12.45333 28.18,13.12 L28.18,15.42 L31.56,15.42 L31.56,17.02 L28.18,17.02 L28.18,21.2 Z" id="£" fill-rule="nonzero"></path>
    </g>
</svg>
