<?xml version="1.0" encoding="UTF-8"?>
<svg width="24px" height="24px" viewBox="0 0 24 24" version="1.1" xmlns="http://www.w3.org/2000/svg" xmlns:xlink="http://www.w3.org/1999/xlink">
    <!-- Generator: Sketch 54.1 (76490) - https://sketchapp.com -->
    <title>Icons / 24px / Checklists &amp; guides</title>
    <desc>Created with Sketch.</desc>
    <g id="Icons-/-24px-/-Checklists-&amp;-guides" stroke="none" stroke-width="1" fill="none" fill-rule="evenodd">
        <g id="Group" transform="translate(3.000000, 5.000000)" stroke="#232A3A" stroke-linecap="round" stroke-linejoin="round">
            <polyline id="Path-10" points="0 1 1 2 3 0"></polyline>
            <polyline id="Path-10" points="0 7 1 8 3 6"></polyline>
            <polyline id="Path-10" points="0 13 1 14 3 12"></polyline>
        </g>
        <rect id="Rectangle" fill="#232A3A" x="8" y="5" width="14" height="2" rx="1"></rect>
        <rect id="Rectangle" fill="#232A3A" x="8" y="11" width="14" height="2" rx="1"></rect>
        <rect id="Rectangle" fill="#232A3A" x="8" y="17" width="14" height="2" rx="1"></rect>
    </g>
</svg>