<?xml version="1.0" encoding="UTF-8"?>
<svg width="128px" height="128px" viewBox="0 0 128 128" version="1.1" xmlns="http://www.w3.org/2000/svg" xmlns:xlink="http://www.w3.org/1999/xlink">
    <!-- Generator: Sketch 54.1 (76490) - https://sketchapp.com -->
    <title>Icons / 128px / Company Docs</title>
    <desc>Created with Sketch.</desc>
    <g id="Icons-/-128px-/-Company-Docs" stroke="none" stroke-width="1" fill="none" fill-rule="evenodd">
        <circle id="Oval" fill="#2579C5" cx="64" cy="64" r="64"></circle>
        <rect id="Rectangle" stroke="#FFFFFF" stroke-width="2" x="25" y="31" width="22" height="66" rx="4"></rect>
        <circle id="Oval" fill="#FFFFFF" cx="36" cy="78" r="4"></circle>
        <rect id="Rectangle" fill="#FFFFFF" x="32" y="38" width="8" height="24"></rect>
        <rect id="Rectangle" stroke="#FFFFFF" stroke-width="2" x="53" y="31" width="22" height="66" rx="4"></rect>
        <circle id="Oval" fill="#FFFFFF" cx="64" cy="78" r="4"></circle>
        <rect id="Rectangle" fill="#FFFFFF" x="60" y="38" width="8" height="24"></rect>
        <rect id="Rectangle" stroke="#FFFFFF" stroke-width="2" x="81" y="31" width="22" height="66" rx="4"></rect>
        <circle id="Oval" fill="#FFFFFF" cx="92" cy="78" r="4"></circle>
        <rect id="Rectangle" fill="#FFFFFF" x="88" y="38" width="8" height="24"></rect>
    </g>
</svg>