<?xml version="1.0" encoding="UTF-8"?>
<svg viewBox="0 0 19 22" version="1.1" xmlns="http://www.w3.org/2000/svg" xmlns:xlink="http://www.w3.org/1999/xlink">
    <!-- Generator: Sketch 52.5 (67469) - http://www.bohemiancoding.com/sketch -->
    <title>file-text</title>
    <desc>Created with Sketch.</desc>
    <defs>
        <path d="M16.7246377,8 L11.7971014,8 C11.2528208,8 10.8115942,7.55228475 10.8115942,7 L10.8115942,2 L3.91304348,2 C3.36876286,2 2.92753623,2.44771525 2.92753623,3 L2.92753623,19 C2.92753623,19.5522847 3.36876286,20 3.91304348,20 L15.7391304,20 C16.2834111,20 16.7246377,19.5522847 16.7246377,19 L16.7246377,8 L17.7101449,8 C18.2544256,8 18.6956522,7.55228475 18.6956522,7 C18.6956522,6.86192881 18.6680755,6.73039322 18.6182061,6.61075487 C18.6696947,6.73749915 18.6956522,6.86739176 18.6956522,7 L18.6956522,19 C18.6956522,20.6568542 17.3719723,22 15.7391304,22 L3.91304348,22 C2.28020161,22 0.956521739,20.6568542 0.956521739,19 L0.956521739,3 C0.956521739,1.34314575 2.28020161,0 3.91304348,0 L11.7971014,0 C12.0584742,0 12.3091418,0.10535684 12.4939603,0.292893219 L18.4070038,6.29289322 C18.499413,6.38666141 18.5715751,6.49713398 18.6206349,6.61731657 Z M12.7826087,3.41421356 L12.7826087,6 L15.33092,6 L12.7826087,3.41421356 Z M13.7681159,11 C14.3123966,11 14.7536232,11.4477153 14.7536232,12 C14.7536232,12.5522847 14.3123966,13 13.7681159,13 L5.88405797,13 C5.33977735,13 4.89855072,12.5522847 4.89855072,12 C4.89855072,11.4477153 5.33977735,11 5.88405797,11 L13.7681159,11 Z M13.7681159,15 C14.3123966,15 14.7536232,15.4477153 14.7536232,16 C14.7536232,16.5522847 14.3123966,17 13.7681159,17 L5.88405797,17 C5.33977735,17 4.89855072,16.5522847 4.89855072,16 C4.89855072,15.4477153 5.33977735,15 5.88405797,15 L13.7681159,15 Z M7.85507246,7 C8.39935309,7 8.84057971,7.44771525 8.84057971,8 C8.84057971,8.55228475 8.39935309,9 7.85507246,9 L5.88405797,9 C5.33977735,9 4.89855072,8.55228475 4.89855072,8 C4.89855072,7.44771525 5.33977735,7 5.88405797,7 L7.85507246,7 Z" id="path-1"></path>
    </defs>
    <g id="mobile" stroke="none" stroke-width="1" fill="none" fill-rule="evenodd">
        <g id="lp.mobile.menu" transform="translate(-334.000000, -203.000000)">
            <g id="file-text" transform="translate(334.000000, 203.000000)">
                <mask id="mask-2" fill="white">
                    <use xlink:href="#path-1"></use>
                </mask>
                <use id="Combined-Shape" fill="#FFFFFF" fill-rule="nonzero" xlink:href="#path-1"></use>
            </g>
        </g>
    </g>
</svg>
