<?xml version="1.0" encoding="UTF-8"?>
<svg width="40px" height="40px" viewBox="0 0 40 40" version="1.1" xmlns="http://www.w3.org/2000/svg" xmlns:xlink="http://www.w3.org/1999/xlink">
    <!-- Generator: Sketch 50.2 (55047) - http://www.bohemiancoding.com/sketch -->
    <title>Group 26</title>
    <desc>Created with Sketch.</desc>
    <defs></defs>
    <g id="lp" stroke="none" stroke-width="1" fill="none" fill-rule="evenodd">
        <g id="lp.2.payment" transform="translate(-1160.000000, -1304.000000)">
            <g id="Group-28" transform="translate(0.000000, 1236.000000)">
                <g id="Group-27" transform="translate(1160.000000, 68.000000)">
                    <g id="Group-26">
                        <rect id="Rectangle" x="0" y="0" width="40" height="40"></rect>
                        <circle id="Oval" stroke="#000000" stroke-width="2" cx="20" cy="20" r="19"></circle>
                        <path d="M17.4687948,29.0082645 L17.4687948,19.5029325 L15.4545455,19.5029325 L15.4545455,16.227714 L17.4687948,16.227714 L17.4687948,14.2613832 C17.4687948,11.5896207 18.6055433,10 21.8372097,10 L24.5269808,10 L24.5269808,13.2764182 L22.8458739,13.2764182 C21.5878147,13.2764182 21.5046831,13.734109 21.5046831,14.5883052 L21.499141,16.227714 L24.5454545,16.227714 L24.1889121,19.5029325 L21.499141,19.5029325 L21.499141,29.0082645 L17.4687948,29.0082645 Z" id="Shape" fill="#000000"></path>
                    </g>
                </g>
            </g>
        </g>
    </g>
</svg>