<?xml version="1.0" encoding="UTF-8"?>
<svg width="40px" height="40px" viewBox="0 0 40 40" version="1.1" xmlns="http://www.w3.org/2000/svg" xmlns:xlink="http://www.w3.org/1999/xlink">
    <!-- Generator: Sketch 50.2 (55047) - http://www.bohemiancoding.com/sketch -->
    <title>Group 24</title>
    <desc>Created with Sketch.</desc>
    <defs></defs>
    <g id="lp" stroke="none" stroke-width="1" fill="none" fill-rule="evenodd">
        <g id="lp.2.payment" transform="translate(-1280.000000, -1304.000000)">
            <g id="Group-28" transform="translate(0.000000, 1236.000000)">
                <g id="Group-27" transform="translate(1160.000000, 68.000000)">
                    <g id="Group-24" transform="translate(120.000000, 0.000000)">
                        <circle id="Oval" stroke="#000000" stroke-width="2" cx="20" cy="20" r="19"></circle>
                        <g id="Group-10">
                            <rect id="Rectangle" x="0" y="0" width="40" height="40"></rect>
                            <path d="M12.2309288,15.2470925 L15.420337,15.2470925 L15.420337,26.3625886 L12.2309288,26.3625886 L12.2309288,15.2470925 Z M13.7443342,13.8567387 L13.7212435,13.8567387 C12.5667066,13.8567387 11.8181818,13.0070199 11.8181818,11.9309887 C11.8181818,10.832955 12.5888352,10 13.7664628,10 C14.9431284,10 15.6666382,10.8308595 15.6897289,11.9278455 C15.6897289,13.0038766 14.9431284,13.8567387 13.7443342,13.8567387 L13.7443342,13.8567387 Z M28.1818182,26.3636364 L24.5652313,26.3636364 L24.5652313,20.6104844 C24.5652313,19.104879 23.9995083,18.0780917 22.7554947,18.0780917 C21.8039639,18.0780917 21.2748012,18.7706493 21.0285,19.4401565 C20.936137,19.6790417 20.9505687,20.0132714 20.9505687,20.3485489 L20.9505687,26.3636364 L17.3676559,26.3636364 C17.3676559,26.3636364 17.4138373,16.1732965 17.3676559,15.2470925 L20.9505687,15.2470925 L20.9505687,16.9915831 C21.1622338,16.2288269 22.3071496,15.1402228 24.1342042,15.1402228 C26.400945,15.1402228 28.1818182,16.740125 28.1818182,20.1819579 L28.1818182,26.3636364 L28.1818182,26.3636364 Z" id="Shape" fill="#000000"></path>
                        </g>
                    </g>
                </g>
            </g>
        </g>
    </g>
</svg>