<?xml version="1.0" encoding="UTF-8"?>
<svg width="13px" height="8px" viewBox="0 0 13 8" version="1.1" xmlns="http://www.w3.org/2000/svg" xmlns:xlink="http://www.w3.org/1999/xlink" fill="#ACACAC">
    <!-- Generator: Sketch 52.5 (67469) - http://www.bohemiancoding.com/sketch -->
    <title>Triangle</title>
    <desc>Created with Sketch.</desc>
    <g id="mobile" stroke="none" stroke-width="1" fill-rule="evenodd">
        <g id="documents.c" transform="translate(-92.000000, -83.000000)">
            <g id="Group-13" transform="translate(20.000000, 70.000000)">
                <g id="Group-7">
                    <polygon id="Triangle" points="78.4949999 20.5425805 72 13 84.9899998 13"></polygon>
                </g>
            </g>
        </g>
    </g>
</svg>
