<?xml version="1.0" encoding="UTF-8"?>
<svg width="40px" height="40px" viewBox="0 0 40 40" version="1.1" xmlns="http://www.w3.org/2000/svg" xmlns:xlink="http://www.w3.org/1999/xlink">
    <!-- Generator: Sketch 50.2 (55047) - http://www.bohemiancoding.com/sketch -->
    <title>Group 25</title>
    <desc>Created with Sketch.</desc>
    <defs></defs>
    <g id="lp" stroke="none" stroke-width="1" fill="none" fill-rule="evenodd">
        <g id="lp.2.payment" transform="translate(-1220.000000, -1304.000000)">
            <g id="Group-28" transform="translate(0.000000, 1236.000000)">
                <g id="Group-27" transform="translate(1160.000000, 68.000000)">
                    <g id="Group-25" transform="translate(60.000000, 0.000000)">
                        <rect id="Rectangle" x="0" y="0" width="40" height="40"></rect>
                        <circle id="Oval" stroke="#000000" stroke-width="2" cx="20" cy="20" r="19"></circle>
                        <path d="M27.8581376,14.2820187 C28.6286531,13.7957795 29.2198797,13.0247753 29.4973507,12.1063235 C28.7759262,12.5576706 27.9787308,12.8840811 27.1281756,13.060793 C26.4494389,12.2954166 25.4793578,11.8181818 24.4057586,11.8181818 C22.3460703,11.8181818 20.6769758,13.5796733 20.6769758,15.7519918 C20.6769758,16.0603935 20.7079245,16.3609163 20.7719562,16.6479325 C17.6728191,16.4836016 14.9247894,14.9190821 13.0838763,12.5374106 C12.7626503,13.1204474 12.5790926,13.7957795 12.5790926,14.5161339 C12.5790926,15.8803049 13.2375525,17.0846473 14.2385823,17.7914949 C13.627079,17.771235 13.0518604,17.5922719 12.5481439,17.299628 L12.5481439,17.3480268 C12.5481439,19.2547147 13.8330479,20.8451219 15.5416286,21.2052991 C15.227873,21.2975945 14.8991767,21.3437422 14.5576739,21.3437422 C14.3175548,21.3437422 14.0827717,21.3201056 13.8565262,21.2739579 C14.3303612,22.8362263 15.7081112,23.9752866 17.3409211,24.0056765 C16.0634875,25.0614458 14.4552231,25.6895048 12.7082233,25.6895048 C12.407274,25.6895048 12.1095263,25.6726215 11.8181818,25.6354782 C13.469134,26.7509018 15.4295731,27.4025974 17.536218,27.4025974 C24.3982882,27.4025974 28.1484149,21.4078988 28.1484149,16.2089665 C28.1484149,16.0378824 28.1462806,15.8679238 28.1388102,15.7002163 C28.867705,15.1453184 29.5016195,14.4519773 30,13.6629642 C29.3308681,13.9758681 28.611578,14.1874722 27.8581376,14.2820187 Z" id="Shape" fill="#000000"></path>
                    </g>
                </g>
            </g>
        </g>
    </g>
</svg>