<?xml version="1.0" encoding="UTF-8"?>
<svg width="294px" height="199px" viewBox="0 0 294 199" version="1.1" xmlns="http://www.w3.org/2000/svg" xmlns:xlink="http://www.w3.org/1999/xlink">
    <!-- Generator: sketchtool 62 (101010) - https://sketch.com -->
    <title>AF23C456-0376-43BE-B712-1BCECBA8C732</title>
    <desc>Created with sketchtool.</desc>
    <g id="PPC-Campaigns-page" stroke="none" stroke-width="1" fill="none" fill-rule="evenodd">
        <g id="PPC-Landing-page-/-v1-/-Design-–-VAT-Invoice" transform="translate(-973.000000, -987.000000)">
            <g id="Group-15" transform="translate(0.000000, 873.000000)">
                <g id="Terms_and_conditions" transform="translate(973.000000, 114.000000)">
                    <path d="M164.635737,29.0030698 C145.987923,29.0030698 128.028919,23.6974145 110.848572,17.7888438 C93.6682248,11.8802731 76.6376191,5.24820403 58.3292188,2.44464754 C46.5295846,0.645950009 33.1626555,0.806727442 23.9585415,7.35840784 C15.0938417,13.6588735 12.5282698,24.0893095 11.2904063,33.7158583 C10.3620087,40.9709399 9.93274958,48.5777222 13.4167363,55.1997428 C15.8425494,59.8019968 19.985399,63.6003636 22.9003679,67.9815487 C33.0927761,83.2453562 26.9633553,102.73962 17.0604474,118.34508 C12.4184593,125.670501 6.97784964,132.694465 3.46391458,140.451977 C-0.0500204735,148.209488 -1.52747044,156.981906 2.09627509,164.568592 C5.72002062,172.155277 13.6563228,177.631758 22.2614706,181.399979 C39.7313182,189.046956 60.0762035,190.684876 79.8620538,191.317937 C123.676432,192.714691 167.580654,189.860892 211.365084,187.007092 C227.567119,185.95199 243.839035,184.88684 259.701656,181.832068 C268.516442,180.133857 277.59078,177.621709 283.830011,172.105034 C291.816228,165.071021 293.383522,153.665872 287.613481,145.446126 C277.940177,131.659461 252.424217,129.056876 245.486192,114.134721 C241.662791,105.925023 244.957105,96.5094945 249.818714,88.5912059 C260.240726,71.6090895 278.179764,56.4357193 278.479247,37.3936421 C278.688885,24.3304756 269.364978,11.6290584 255.429031,5.9516053 C240.824238,0.0128888667 220.908612,1.54027448 210.676273,12.6138202 C200.154433,24.0591637 181.107308,28.9829726 164.635737,29.0030698 Z" id="Path" fill="#D5EAF1" fill-rule="nonzero"></path>
                    <ellipse id="Oval" fill="#D5EAF1" fill-rule="nonzero" cx="254.507463" cy="188.025735" rx="39.4925373" ry="3.65808824"></ellipse>
                    <path d="M263.283582,71.1027967 L263.283582,74.2761157 L256.738863,77.5514706 C256.738863,77.5514706 250.235178,73.6434926 251.835454,72.0823421 C252.861272,71.0619823 252.666366,68.3988433 252.389395,66.5315849 L252.389395,66.5315849 C252.225264,65.4500035 252.040617,64.6643264 252.040617,64.6643264 C252.040617,64.6643264 263.714426,61.3481571 261.950019,63.8582422 C261.39635,64.7785162 261.237424,65.8814038 261.508917,66.9193216 C261.860443,68.4029325 262.460368,69.8171561 263.283582,71.1027967 L263.283582,71.1027967 Z" id="Path" fill="#ECB8A1" fill-rule="nonzero"></path>
                    <path d="M244.268657,102.227184 L243.488408,112.669118 C243.488408,112.669118 242.308521,111.524937 240.7956,110.019979 C237.941033,107.236838 233.982699,103.268285 234.030276,103.154898 C234.077852,103.04151 234.743917,93.5272905 234.810524,91.1461585 C234.873612,89.4418691 235.2151,87.7631905 235.819138,86.1880439 C236.109481,85.1339657 236.3477,84.0638558 236.53278,82.9822775 L236.627932,82.5184206 L237.941033,81.9411765 C237.941033,81.9411765 243.412287,88.5588679 243.412287,88.6722552 C243.412287,88.7856424 243.031678,93.8262205 243.031678,93.8262205 L242.651069,94.186998 L242.479795,94.3519249 C242.479795,94.3519249 242.213368,96.56813 242.032579,97.2278376 C241.91263,97.870737 241.91263,98.5331371 242.032579,99.1760365 L242.032579,99.1760365 C242.013692,99.5235822 241.965922,99.868576 241.889851,100.20683 C241.862937,100.33889 241.821404,100.466948 241.766153,100.588223 C241.690247,100.807543 241.690247,101.049226 241.766153,101.268546 C241.871875,101.566504 242.009179,101.850154 242.175307,102.113797 L244.268657,102.227184 Z" id="Path" fill="#082C46" fill-rule="nonzero"></path>
                    <path d="M279.372719,102.129497 C279.429863,102.257333 273.582076,107.754299 271.058193,110.134023 L269.905779,111.205882 L269.134328,101.244475 L271.14391,101.244475 C271.14391,101.244475 271.810596,100.261118 271.591542,99.789107 C271.434976,99.3576027 271.348104,98.9024807 271.334392,98.4419078 C271.441343,97.8240099 271.441343,97.1914273 271.334392,96.5735294 C271.153434,95.9343473 270.88676,93.8201297 270.88676,93.8201297 L270.639134,93.5939575 L270.334363,93.3284511 C270.334363,93.3284511 269.962924,88.4805009 269.962924,88.362498 C269.962924,88.2444952 275.439272,81.9411765 275.439272,81.9411765 L276.744071,82.4820228 L276.820264,82.8556985 C277.016465,83.9103683 277.26441,84.9540707 277.563143,85.982774 C278.161245,87.473363 278.499783,89.0612688 278.563171,90.6733871 C278.658412,92.9449419 279.296526,101.981993 279.372719,102.129497 Z" id="Path" fill="#082C46" fill-rule="nonzero"></path>
                    <path d="M279.288624,189.825695 C278.927664,190.543245 276.410697,190.071431 275.893645,190.032114 C275.376594,189.992796 271.708455,188.13503 271.659677,187.692705 C271.610899,187.25038 270.332904,186.36573 269.981699,186.36573 C269.156118,185.955753 268.399077,185.418501 267.737891,184.773359 C267.69745,184.673796 267.680743,184.566065 267.689112,184.458817 C267.630578,183.613484 267.737891,181.441176 267.737891,181.441176 L275.11319,181.854013 L278.703283,187.289698 C279.005139,187.874673 279.221981,188.500325 279.347158,189.147463 C279.396029,189.374312 279.375624,189.610751 279.288624,189.825695 Z" id="Path" fill="#082C46" fill-rule="nonzero"></path>
                    <path d="M279.288624,189.825695 C278.927664,190.543245 276.410697,190.071431 275.893645,190.032114 C275.376594,189.992796 271.708455,188.13503 271.659677,187.692705 C271.610899,187.25038 270.332904,186.36573 269.981699,186.36573 C269.156118,185.955753 268.399077,185.418501 267.737891,184.773359 C267.69745,184.673796 267.680743,184.566065 267.689112,184.458817 C267.630578,183.613484 267.737891,181.441176 267.737891,181.441176 L275.11319,181.854013 L278.703283,187.289698 C279.005139,187.874673 279.221981,188.500325 279.347158,189.147463 C279.396029,189.374312 279.375624,189.610751 279.288624,189.825695 Z" id="Path" fill="#000000" fill-rule="nonzero" opacity="0.100000001"></path>
                    <path d="M279.261362,189.819447 C278.900771,190.54835 276.386384,190.069071 275.869863,190.029131 C275.353342,189.989191 271.688964,188.10203 271.640235,187.652706 C271.591507,187.203382 270.314822,186.304733 269.963977,186.304733 C269.139242,185.888269 268.382978,185.342517 267.722469,184.687166 C267.68207,184.586027 267.66538,184.476592 267.673741,184.367647 L270.061434,185.915319 C270.771858,186.361176 271.426425,186.894334 272.010571,187.502931 C272.41989,188.092045 275.626221,189.320198 275.908846,189.350153 C277.049161,189.162465 278.204596,189.088895 279.358819,189.130483 C279.395426,189.364948 279.361431,189.605276 279.261362,189.819447 Z" id="Path" fill="#000000" fill-rule="nonzero" opacity="0.100000001"></path>
                    <path d="M244.268657,185.063149 C243.663094,185.822001 242.811243,186.326462 241.872446,186.482169 C241.121893,186.491803 240.508503,187.1051 240.473059,187.881342 C240.473059,187.881342 240.71268,188.685122 237.396324,189.796522 C235.402676,190.461377 234.137477,190.25299 233.409029,189.796522 C233.023922,189.581528 232.727526,189.228815 232.575147,188.804201 C232.354696,187.980574 236.773309,181.689257 236.773309,181.689257 L240.798943,181.441176 L243.674396,182.790733 L244.115299,184.497526 L244.268657,185.063149 Z" id="Path" fill="#082C46" fill-rule="nonzero"></path>
                    <path d="M244.268657,185.018269 C243.61615,185.783724 242.698261,186.292575 241.686686,186.449637 C240.877948,186.459355 240.217007,187.077989 240.178815,187.860985 C240.178815,187.860985 240.437012,188.67176 236.863564,189.792832 C234.715364,190.463472 233.352083,190.253272 232.567164,189.792832 C234.632741,189.582631 239.084059,188.341445 239.538486,187.911033 C239.992913,187.480622 240.746848,185.90912 241.211603,185.90912 C242.221875,185.481545 243.189818,184.965585 244.103411,184.367647 L244.268657,185.018269 Z" id="Path"></path>
                    <path d="M244.268657,185.018269 C243.61615,185.783724 242.698261,186.292575 241.686686,186.449637 C240.877948,186.459355 240.217007,187.077989 240.178815,187.860985 C240.178815,187.860985 240.437012,188.67176 236.863564,189.792832 C234.715364,190.463472 233.352083,190.253272 232.567164,189.792832 C234.632741,189.582631 239.084059,188.341445 239.538486,187.911033 C239.992913,187.480622 240.746848,185.90912 241.211603,185.90912 C242.221875,185.481545 243.189818,184.965585 244.103411,184.367647 L244.268657,185.018269 Z" id="Path" fill="#000000" fill-rule="nonzero" opacity="0.100000001"></path>
                    <path d="M276.380149,178.185491 C276.129546,179.287065 276.129546,180.43084 276.380149,181.532415 C276.380149,181.532415 269.364052,181.893161 267.65012,180.750798 C265.936188,179.608434 264.723405,173.014793 264.723405,173.014793 C264.723405,173.014793 264.97398,165.278789 264.723405,164.908022 C264.47283,164.537255 263.520646,162.82371 263.841382,162.452943 C264.162117,162.082176 263.590807,160.158196 263.159818,159.316454 C262.876056,158.259131 262.781052,157.160056 262.879174,156.069738 L261.876874,149.696553 L260.263172,142.12088 L258.869976,137.030349 C258.869976,137.030349 257.456733,132.901808 256.97563,131.178242 C256.494526,129.454676 255.97333,131.01791 255.97333,131.01791 C255.923215,132.691372 252.054339,140.216941 252.054339,140.216941 C251.807982,142.298348 251.405936,144.358368 250.851579,146.379691 C250.245659,148.767938 249.806925,151.195493 249.538567,153.644721 C249.538567,153.644721 248.536267,165.138499 247.714382,167.0725 C247.111945,168.632593 246.645804,170.241925 246.321185,171.882451 C246.321185,171.882451 246.531668,175.890743 246.000449,176.171324 C245.469231,176.451904 245.569461,178.886942 245.569461,178.886942 C245.569461,178.886942 245.880173,181.181689 244.677414,181.552456 C243.474655,181.923223 243.675114,182.70484 243.675114,182.70484 C243.675114,182.70484 236.979753,183.7971 235.887247,180.871047 C234.79474,177.944993 236.308213,177.163376 236.388397,176.952941 C236.468581,176.742505 237.300489,176.381759 236.568811,175.540018 C235.837132,174.698276 237.510972,172.403529 237.510972,172.403529 C237.510972,172.403529 237.77157,169.166833 238.242651,169.066626 C238.713732,168.966418 238.563387,164.256675 238.563387,164.256675 L239.084582,159.346517 C239.084582,159.346517 239.766146,148.323713 239.605778,147.952945 C239.45769,146.762807 239.61997,145.554607 240.076859,144.44569 C240.598055,143.443617 241.019021,134.30471 241.019021,134.30471 C241.019021,134.30471 240.908768,129.805402 241.329733,128.973681 C241.620561,127.735921 241.758571,126.467193 241.740676,125.195866 C241.790791,124.053502 241.800814,123.121574 241.800814,123.121574 L247.654244,120.927034 L255.17149,118.522059 L261.496001,121.528278 L270.747225,123.311968 L270.89757,125.005472 L272.661618,149.38591 L273.663917,158.57492 C273.663917,158.57492 274.084883,162.913897 274.134998,163.695514 C274.185113,164.477131 274.706309,169.607745 274.706309,169.607745 C274.706309,169.607745 275.808838,172.062824 275.127275,172.894545 C274.732501,173.286808 274.572679,173.857471 274.706309,174.397654 C274.706309,174.397654 276.85123,177.113272 276.380149,178.185491 Z" id="Path" fill="#082C46" fill-rule="nonzero"></path>
                    <path d="M261.636636,63.8367274 C261.070308,64.7415756 260.908783,65.8296798 261.189073,66.8516966 C257.348362,69.4747197 255.620562,69.4546199 251.935976,66.5200499 L251.935976,66.5200499 C251.769441,65.4547609 251.58209,64.6708689 251.58209,64.6708689 C251.58209,64.6708689 263.426887,61.3644528 261.636636,63.8367274 Z" id="Path" fill="#000000" fill-rule="nonzero" opacity="0.100000001"></path>
                    <path d="M263.283582,61.4458502 C263.287612,64.405807 261.508339,67.0765532 258.775859,68.2120788 C256.043378,69.3476043 252.896151,68.7241432 250.802486,66.6325649 C248.70882,64.5409866 248.081292,61.3934566 249.212669,58.6584236 C250.344046,55.9233906 253.011379,54.1397059 255.97025,54.1397059 L255.97025,54.1397059 C257.899289,54.1291986 259.753532,54.8856205 261.125053,56.2426714 C262.496574,57.5997223 263.27302,59.4462353 263.283582,61.3759838 L263.283582,61.4458502 Z" id="Path" fill="#ECB8A1" fill-rule="nonzero"></path>
                    <polygon id="Path" fill="#000000" fill-rule="nonzero" opacity="0.100000001" points="264.746269 73.3051188 262.408568 117.058824 249.707058 114.26342 247.19403 96.7127876 249.687578 73.1617647 251.557738 73.4177541 254.869482 73.8580558 258.142263 74.0730869 261.697517 73.6635039"></polygon>
                    <polygon id="Path" fill="#FAFAFA" fill-rule="nonzero" points="264.746269 73.2948792 262.408568 117.058824 249.707058 114.25318 247.19403 96.7127876 249.687578 73.1617647 251.557738 73.4075145 254.869482 73.8580558 258.142263 74.0628473 261.697517 73.6532643"></polygon>
                    <path d="M254.507463,74.625 L258.895522,74.7725256 L257.663131,76.5920079 C257.663131,76.5920079 257.747158,80.2604775 258.335345,81.3128267 C258.923531,82.3651759 258.746142,98.6224959 258.746142,98.6224959 L257.579104,100.963235 L255.627818,98.3471148 L255.627818,76.877224 L254.507463,74.625 Z" id="Path" fill="#FA714F" fill-rule="nonzero"></path>
                    <polygon id="Path" fill="#000000" fill-rule="nonzero" opacity="0.100000001" points="262.249804 70.2352941 257.432836 74.9981741 260.182247 77.5514706 264.746269 73.5840407"></polygon>
                    <polygon id="Path" fill="#ECEDEF" fill-rule="nonzero" points="262.249804 68.7720588 257.432836 73.5285543 260.182247 76.0882353 264.746269 72.1261236"></polygon>
                    <polygon id="Path" fill="#000000" fill-rule="nonzero" opacity="0.100000001" points="255.970149 74.6151133 251.961305 70.2352941 251.58209 72.5290143 253.423991 77.5514706"></polygon>
                    <polygon id="Path" fill="#ECEDEF" fill-rule="nonzero" points="255.970149 74.6151133 251.962086 70.2352941 251.58209 72.5290143 253.427789 77.5514706"></polygon>
                    <path d="M270.597015,125.212599 C268.453726,126.273975 266.159746,126.965656 263.804353,127.260724 C259.477176,127.8384 256.639352,122.082645 256.639352,122.082645 L254.988987,124.33033 C254.4657,126.714558 246.455391,127.31324 243.204976,126.430971 C242.52935,126.262038 241.89515,125.947175 241.343284,125.506689 C241.343284,124.319827 241.3936,123.332526 241.3936,123.332526 L247.27051,121.032324 L254.817913,118.522059 L261.167794,121.67302 L270.45613,123.532087 L270.597015,125.212599 Z" id="Path" fill="#000000" fill-rule="nonzero" opacity="0.100000001"></path>
                    <path d="M264.746269,73.2948792 L262.403367,117.058824 L249.712649,114.25318 L247.19403,96.7127876 L249.683363,73.1617647 L251.567446,73.4177541 C251.51706,74.2757733 251.422555,75.1303143 251.284346,75.9776479 C250.981721,77.4726259 252.865804,88.1013049 252.865804,88.1013049 C252.865804,88.1013049 256.448492,100.02017 258.059237,98.3408801 C259.669982,96.6615898 261.964073,87.5483678 261.964073,87.5483678 C263.516245,84.1897872 261.964073,74.7488989 261.876214,74.5645865 C261.797482,74.2843781 261.748376,73.9959351 261.729783,73.7044622 L264.746269,73.2948792 Z" id="Path" fill="#000000" fill-rule="nonzero" opacity="0.100000001"></path>
                    <polygon id="Path" fill="#000000" fill-rule="nonzero" opacity="0.100000001" points="270.516967 107.335668 270.597015 111.568084 269.723769 112.669118 269.134328 102.426471 270.444197 102.426471"></polygon>
                    <path d="M242.177116,98.0367647 L242.177116,98.0367647 C242.144829,98.5288745 242.076386,99.0179402 241.97234,99.5 C241.97234,99.3536765 241.97234,99.2805147 241.97234,99.2658824 C241.97234,99.25125 241.957713,98.6805882 242.177116,98.0367647 Z" id="Path" fill="#000000" fill-rule="nonzero" opacity="0.100000001"></path>
                    <path d="M244.268657,101.83984 L243.61145,112.669118 C243.61145,112.669118 242.617624,111.482494 241.343284,109.92171 L241.495563,108.008145 C241.495563,108.008145 242.03255,103.293721 242.232918,100.963235 C242.318696,101.274202 242.434553,101.568896 242.577551,101.83984 L244.268657,101.83984 Z" id="Path" fill="#000000" fill-rule="nonzero" opacity="0.100000001"></path>
                    <path d="M252.468054,70.7573764 C252.468054,70.7573764 251.673933,69.613339 250.584563,71.8218287 C249.37218,72.5343136 248.093926,73.1338408 246.766677,73.6124959 C245.748574,73.7915627 242.317567,74.9853409 242.317567,74.9853409 C241.788489,75.353805 241.15505,75.552008 240.505343,75.5523855 C239.415973,75.5523855 238.469137,77.8902011 238.652396,79.1635645 C238.835654,80.4369279 238.570948,81.3720542 237.563026,81.4217949 C236.555104,81.4715357 237.104879,83.5208549 237.104879,83.5208549 L243.824359,91.0416575 C243.824359,91.0416575 244.251962,98.0053636 244.038161,98.1744822 C243.618377,98.8842689 243.348358,99.6690311 243.24404,100.482453 C243.427299,100.55209 242.225937,108.212167 242.225937,108.212167 L240.607154,123.134395 C240.607154,123.134395 240.607154,125.621432 243.895626,126.476973 C247.184099,127.332514 255.29838,126.76547 255.817613,124.487343 L257.487301,122.358439 C257.487301,122.358439 260.358352,127.810026 264.736195,127.262877 C267.220014,126.980036 269.632889,126.269363 271.862916,125.163817 L271.384407,107.346678 L271.068796,94.5036143 L277.910448,83.5606475 C277.910448,83.5606475 276.077862,80.1285352 276.230578,78.5865717 C276.383293,77.0446082 276.709086,75.8607782 272.809752,75.3136299 C270.966484,75.0404397 269.191682,74.4331302 267.576702,73.5229626 C266.424341,72.7435686 265.16687,72.1241927 263.840264,71.6825545 C263.840264,71.6825545 262.740713,69.6929242 261.977136,70.3793467 C262.285357,71.440421 262.520053,72.5205844 262.679627,73.6124959 C262.659134,74.4579393 262.741153,75.3027802 262.923972,76.1293783 C263.035963,76.3183932 264.634385,85.4806408 263.015601,88.7436345 C263.015601,88.7436345 260.63324,97.5576968 258.943189,99.2289863 C257.253138,100.900276 253.526881,89.2808347 253.526881,89.2808347 C253.526881,89.2808347 251.561942,78.9546533 251.877554,77.5022232 C252.193166,76.0497931 252.468054,70.7573764 252.468054,70.7573764 Z" id="Path" fill="#082C46" fill-rule="nonzero"></path>
                    <ellipse id="Oval" fill="#082C46" fill-rule="nonzero" cx="257.432836" cy="102.426471" rx="1.46268657" ry="1.46323529"></ellipse>
                    <ellipse id="Oval" fill="#082C46" fill-rule="nonzero" cx="257.432836" cy="108.279412" rx="1.46268657" ry="1.46323529"></ellipse>
                    <ellipse id="Oval" fill="#000000" fill-rule="nonzero" opacity="0.100000001" cx="257.432836" cy="102.426471" rx="1.46268657" ry="1.46323529"></ellipse>
                    <ellipse id="Oval" fill="#000000" fill-rule="nonzero" opacity="0.100000001" cx="257.432836" cy="108.279412" rx="1.46268657" ry="1.46323529"></ellipse>
                    <path d="M267.671642,177.193354 C267.671642,177.193354 272.963154,177.720119 273.491181,178.261516 C274.019209,178.802913 267.671642,177.193354 267.671642,177.193354 Z" id="Path" stroke="#6C63FF" stroke-width="0.5" fill="#000000" fill-rule="nonzero" opacity="0.100000001"></path>
                    <path d="M240.112423,174.125 C240.112423,174.125 241.57511,175.077578 240.960781,175.519574 C240.346453,175.961571 240.112423,174.125 240.112423,174.125 Z" id="Path" stroke="#6C63FF" stroke-width="0.5" fill="#000000" fill-rule="nonzero" opacity="0.100000001"></path>
                    <path d="M241.343284,178.203768 C241.343284,178.203768 243.351541,176.447886 244.152649,177.618474 C244.953758,178.789063 241.343284,178.203768 241.343284,178.203768 Z" id="Path" stroke="#6C63FF" stroke-width="0.5" fill="#000000" fill-rule="nonzero" opacity="0.100000001"></path>
                    <path d="M263.283582,61.1404491 C263.283886,61.7407403 263.203325,62.338562 263.043892,62.9191176 C262.73023,62.777695 262.539735,62.4660916 262.564515,62.1349735 C262.564515,61.8480914 262.794217,61.5898976 262.744282,61.3125783 C262.684359,60.8726926 262.135073,60.7005634 261.845449,60.3563049 C261.565674,59.88354 261.476831,59.3288991 261.595773,58.7975793 C261.595773,58.2525035 261.485916,57.6022375 260.956603,57.4109829 C260.796811,57.3631692 260.627031,57.3536065 260.477226,57.2962301 C260.05777,57.1241008 259.937926,56.6364014 259.658289,56.292143 C258.988707,55.6776584 257.984978,55.539262 257.161531,55.9478846 C256.794189,56.1172832 256.417449,56.2673233 256.032997,56.3973331 C255.648944,56.5325692 255.222449,56.5011557 254.864514,56.3112685 C254.694735,56.2156411 254.564904,56.0722001 254.395124,55.9765728 C253.763011,55.7424472 253.045489,55.9103898 252.597458,56.3973331 C252.16825,56.8807247 251.662804,57.2969411 251.099404,57.6309258 C250.829754,57.7456786 250.480208,57.8221804 250.350377,58.0803742 C250.289433,58.2227096 250.262149,58.3761969 250.27048,58.5298227 C250.343977,59.4575679 250.317203,60.3901009 250.190584,61.3125783 C250.060753,61.8959051 249.63131,62.5652965 249.002127,62.4887946 C248.926645,62.4786665 248.852814,62.4593863 248.782413,62.4314182 C248.040553,58.6288447 250.658526,54.970404 254.629819,54.2600621 C258.601112,53.5497203 262.421877,56.0564693 263.163737,59.8590428 C263.243695,60.281878 263.283804,60.7107385 263.283582,61.1404491 L263.283582,61.1404491 Z" id="Path" fill="#000000" fill-rule="nonzero" opacity="0.100000001"></path>
                    <path d="M248.427116,62.2126347 C248.613783,62.2789756 248.803977,62.3344748 248.996785,62.378866 C249.62749,62.4619817 250.064914,61.7347198 250.197159,61.1009631 C250.334618,60.099531 250.365315,59.0858255 250.288713,58.0776319 C250.276897,57.9105432 250.304817,57.7430142 250.370094,57.5893275 C250.512512,57.3088122 250.858382,57.2360861 251.133044,57.1010231 C251.705562,56.7362812 252.220136,56.2843167 252.658943,55.7607835 C253.10869,55.227967 253.839493,55.0445002 254.47985,55.3036475 C254.652785,55.4075421 254.78503,55.5633839 254.957965,55.6776679 C255.329049,55.875795 255.764468,55.9059441 256.15834,55.7607835 C256.547593,55.6221078 256.928096,55.4590297 257.297678,55.2724792 C258.13643,54.8285302 259.158816,54.9788913 259.840844,55.6464995 C260.125678,56.0205199 260.24775,56.5503821 260.675002,56.7373922 C260.827592,56.799729 261.000527,56.8101184 261.16329,56.8724551 C261.702441,57.0698548 261.834686,57.7867271 261.81434,58.3685366 C261.703245,58.9460491 261.7932,59.5450559 262.068657,60.0620177 C262.363664,60.4256486 262.923161,60.6230482 262.984197,61.1009631 C262.984197,61.4022573 262.831607,61.693162 262.801089,61.9944562 C262.784303,62.2232985 262.857521,62.4495356 263.004535,62.6230824 C263.15155,62.7966293 263.360232,62.9031698 263.584384,62.9191176 L263.584384,62.9191176 C264.245607,62.9191176 264.652514,62.1606875 265.273046,61.8801722 C265.527363,61.7762777 265.832542,61.7658882 266.035996,61.5580991 C266.1871,61.3574516 266.243015,61.0985683 266.188586,60.8516162 C266.066514,59.8126708 265.283219,58.9919039 265.374773,57.9945162 C265.466327,56.9971286 266.32083,56.2075301 266.137722,55.2620897 C266.042223,54.9170994 265.8679,54.6001909 265.629089,54.3374283 C265.361161,53.9642577 265.013196,53.6586309 264.611823,53.4439352 C264.246509,53.3376971 263.886625,53.2128677 263.533521,53.0699148 C262.516254,52.5296632 262.57729,51.1270868 262.007621,50.171257 C261.50971,49.3684001 260.615345,48.915694 259.688254,48.9972487 C258.976167,49.0699748 258.325117,49.4543847 257.653721,49.5894476 C256.669057,49.6852383 255.677426,49.5056702 254.78503,49.0699748 C253.899416,48.629046 252.939617,48.3645891 251.95703,48.2907658 C250.951668,48.2324583 250.015933,48.8157931 249.607144,49.7556788 C249.454555,50.2751516 249.525763,50.7946243 249.403691,51.3556548 C249.105711,52.2765581 248.446032,53.0293379 247.582784,53.4335457 C247.023288,53.7452294 246.351892,54.1088603 246.290856,54.7633959 C246.308193,55.1739727 246.415985,55.5752674 246.606209,55.9374042 C246.850151,56.6076304 246.850151,57.345069 246.606209,58.0152951 C246.412928,58.5035995 246.107748,58.9399566 245.914468,59.4282609 C245.647518,60.0996669 245.673418,60.8554501 245.985676,61.5061518 C246.225791,61.9773125 246.645207,62.3267601 247.14536,62.4723711 C247.572612,62.5970446 247.887964,62.0879613 248.427116,62.2126347 Z" id="Path" fill="#232A3A" fill-rule="nonzero"></path>
                    <g id="Group" opacity="0.100000001" transform="translate(245.731343, 54.139706)" fill="#000000" fill-rule="nonzero">
                        <path d="M4.76835821,6.03828431 C4.64159204,6.63333333 4.22228856,7.30642157 3.6079602,7.23813725 C3.42268657,7.23813725 3.25691542,7.12107843 3.07164179,7.07230392 C2.55482587,6.965 2.25253731,7.4429902 1.77472637,7.31617647 C1.29529353,7.17945885 0.893251726,6.85135433 0.663084577,6.40897059 C0.538073949,6.15840844 0.458818756,5.88751828 0.429054726,5.60906863 C0.383833962,6.04234132 0.465123839,6.47943833 0.663084577,6.86745098 C0.893251726,7.30983473 1.29529353,7.63793924 1.77472637,7.77465686 C2.26228856,7.89171569 2.55482587,7.41372549 3.07164179,7.53078431 C3.24716418,7.59906863 3.43243781,7.64784314 3.6079602,7.69661765 C4.22228856,7.76490196 4.64159204,7.09181373 4.76835821,6.49676471 C4.8632388,5.96254634 4.89920881,5.41952255 4.87562189,4.87745098 C4.87971078,5.26704951 4.84376742,5.65603711 4.76835821,6.03828431 Z" id="Path"></path>
                        <path d="M1.42368159,2.36068627 C1.45972039,1.96053451 1.40642955,1.5573713 1.26766169,1.18034314 C1.15744529,0.929607494 1.06299922,0.672226849 0.984875622,0.409705882 C0.980886171,0.451882925 0.980886171,0.494342565 0.984875622,0.536519608 C0.99692414,0.922722106 1.10053263,1.30053346 1.28716418,1.63882353 C1.36591058,1.87194752 1.4118567,2.11489671 1.42368159,2.36068627 L1.42368159,2.36068627 Z" id="Path"></path>
                        <path d="M20.0485572,1.07303922 C19.9412935,1.76563725 19.3757214,2.41921569 19.3172139,3.15083333 C19.307461,3.27420283 19.307461,3.39815011 19.3172139,3.52151961 C19.4439801,2.67284314 20.1948259,1.95098039 20.0485572,1.07303922 Z" id="Path"></path>
                        <path d="M20.0973134,6.22362745 C20.0764718,6.32708283 20.0255933,6.4220917 19.9510448,6.49676471 C19.7755224,6.69186275 19.4634826,6.70161765 19.2197015,6.79916667 C18.6346269,7.02352941 18.2445771,7.77465686 17.600995,7.77465686 C17.2649486,7.75221901 16.9758857,7.52859317 16.8696517,7.20887255 L16.8696517,7.36495098 C16.8415973,7.81068692 17.1755264,8.1968017 17.6204975,8.23313725 L17.6204975,8.23313725 C18.2543284,8.23313725 18.6443781,7.52102941 19.239204,7.25764706 C19.4829851,7.16009804 19.7852736,7.15034314 19.9705473,6.9552451 C20.1175648,6.76785976 20.1746358,6.52521695 20.1265672,6.29191176 C20.1125339,6.27123485 20.1026027,6.24805321 20.0973134,6.22362745 L20.0973134,6.22362745 Z" id="Path"></path>
                        <path d="M17.0354229,6.01877451 C16.9769154,5.57980392 16.440597,5.39446078 16.1578109,5.04328431 C15.9845324,4.81224309 15.8889409,4.5321914 15.8847761,4.24338235 C15.8161233,4.6822163 15.9134738,5.13089205 16.1578109,5.50176471 C16.440597,5.84318627 16.8599005,5.9895098 16.9964179,6.34068627 C17.0339935,6.237811 17.0473412,6.1276513 17.0354229,6.01877451 L17.0354229,6.01877451 Z" id="Path"></path>
                        <path d="M15.9042786,3.4629902 C15.9042786,2.91671569 15.7872637,2.24362745 15.280199,2.05828431 C15.1241791,1.9997549 14.958408,1.9997549 14.8121393,1.93147059 C14.4025871,1.76563725 14.2758209,1.25838235 14.0125373,0.955980392 C13.3587638,0.329147441 12.3787316,0.187969871 11.5747264,0.604803922 C11.2041791,0.751127451 10.8531343,0.94622549 10.4728358,1.06328431 C10.0971601,1.19614563 9.68288398,1.16426628 9.3319403,0.975490196 C9.16616915,0.877941176 9.03940299,0.731617647 8.87363184,0.634068627 C8.25824096,0.3958614 7.55972717,0.562791184 7.11840796,1.05352941 C6.70460747,1.55454853 6.21028232,1.98312438 5.65572139,2.32166667 C5.38268657,2.43872549 5.05114428,2.51676471 4.91462687,2.78014706 C4.85359325,2.92146887 4.82686135,3.07523496 4.83661692,3.22887255 L4.83661692,3.52151961 C4.8451022,3.42433838 4.86811108,3.3289801 4.90487562,3.23862745 C5.05114428,2.9752451 5.38268657,2.89720588 5.65572139,2.78014706 C6.20485065,2.4342226 6.69807501,2.00660113 7.11840796,1.5120098 C7.55350952,1.01781759 8.25186147,0.849994131 8.8638806,1.09254902 C9.02965174,1.19009804 9.16616915,1.33642157 9.32218905,1.43397059 C9.67782069,1.61863433 10.0933223,1.65033701 10.4728358,1.52176471 C10.8433831,1.38519608 11.2139303,1.22911765 11.5649751,1.06328431 C12.3679097,0.64018174 13.3518077,0.781916202 14.0027861,1.41446078 C14.2758209,1.75588235 14.4025871,2.26313725 14.8023881,2.38995098 C14.9486567,2.45823529 15.1241791,2.45823529 15.2704478,2.51676471 C15.6713612,2.73040854 15.9140747,3.15531648 15.8945274,3.60931373 L15.9042786,3.4629902 Z" id="Path"></path>
                    </g>
                    <path d="M215.720323,140.470588 L137.137984,130.477189 C133.576577,100.608594 138.958929,71.4400442 148.144139,42.4338235 L226.716418,52.4272224 C215.04543,80.1841417 211.238919,110.662053 215.720323,140.470588 L215.720323,140.470588 Z" id="Path" fill="#FFFFFF" fill-rule="nonzero"></path>
                    <polygon id="Rectangle" fill="#14BBC4" fill-rule="nonzero" transform="translate(183.150679, 58.664136) rotate(-82.820000) translate(-183.150679, -58.664136) " points="180.568903 34.6087303 185.776323 34.6040162 185.732456 82.7195424 180.525035 82.7242565"></polygon>
                    <polygon id="Rectangle" fill="#738897" fill-rule="nonzero" opacity="0.300000012" transform="translate(180.749960, 69.768138) rotate(-82.820000) translate(-180.749960, -69.768138) " points="179.480348 37.1655692 182.079023 37.1632168 182.019572 102.370706 179.420898 102.373058"></polygon>
                    <polygon id="Rectangle" fill="#738897" fill-rule="nonzero" opacity="0.300000012" transform="translate(179.714967, 78.106991) rotate(-82.820000) translate(-179.714967, -78.106991) " points="178.445355 45.504423 181.044029 45.5020705 180.984579 110.70956 178.385905 110.711912"></polygon>
                    <polygon id="Rectangle" fill="#738897" fill-rule="nonzero" opacity="0.300000012" transform="translate(178.668802, 86.454581) rotate(-82.820000) translate(-178.668802, -86.454581) " points="177.39919 53.8520123 179.997865 53.8496598 179.938414 119.057149 177.33974 119.059502"></polygon>
                    <polygon id="Rectangle" fill="#738897" fill-rule="nonzero" opacity="0.300000012" transform="translate(177.633809, 94.803508) rotate(-82.820000) translate(-177.633809, -94.803508) " points="176.364197 62.2009396 178.962871 62.1985871 178.903421 127.406076 176.304747 127.408429"></polygon>
                    <polygon id="Rectangle" fill="#738897" fill-rule="nonzero" opacity="0.300000012" transform="translate(176.588894, 103.141103) rotate(-82.820000) translate(-176.588894, -103.141103) " points="175.319282 70.5385343 177.917956 70.5361818 177.858506 135.743671 175.259832 135.746024"></polygon>
                    <polygon id="Rectangle" fill="#738897" fill-rule="nonzero" opacity="0.300000012" transform="translate(175.532729, 111.488692) rotate(-82.820000) translate(-175.532729, -111.488692) " points="174.263117 78.8861236 176.861791 78.8837711 176.802341 144.09126 174.203667 144.093613"></polygon>
                    <polygon id="Rectangle" fill="#14BBC4" fill-rule="nonzero" opacity="0.300000012" transform="translate(174.497736, 119.827546) rotate(-82.820000) translate(-174.497736, -119.827546) " points="173.228124 87.2249773 175.826798 87.2226248 175.767348 152.430114 173.168674 152.432467"></polygon>
                    <path d="M178.178242,111.205882 L105.313433,81.7234394 C109.3022,52.1504052 121.737183,25.5165561 137.762056,0 L210.626866,29.4824429 C192.527419,53.1679973 181.294461,81.4587493 178.178242,111.205882 L178.178242,111.205882 Z" id="Path" fill="#E6E6E6" fill-rule="nonzero"></path>
                    <polygon id="Rectangle" fill="#14BBC4" fill-rule="nonzero" transform="translate(167.645899, 23.754474) rotate(-68.160000) translate(-167.645899, -23.754474) " points="165.1056 -0.318441189 170.308354 -0.331568238 170.186199 47.8273893 164.983445 47.8405163"></polygon>
                    <polygon id="Rectangle" fill="#738897" fill-rule="nonzero" opacity="0.300000012" transform="translate(162.550074, 33.887655) rotate(-68.160000) translate(-162.550074, -33.887655) " points="161.334675 1.25775582 163.93102 1.25120499 163.765472 66.5175536 161.169127 66.5241044"></polygon>
                    <polygon id="Rectangle" fill="#738897" fill-rule="nonzero" opacity="0.300000012" transform="translate(159.440578, 41.685196) rotate(-68.160000) translate(-159.440578, -41.685196) " points="158.22518 9.05529744 160.821525 9.04874661 160.655977 74.3150952 158.059632 74.321646"></polygon>
                    <polygon id="Rectangle" fill="#738897" fill-rule="nonzero" opacity="0.300000012" transform="translate(156.337363, 49.492088) rotate(-68.160000) translate(-156.337363, -49.492088) " points="155.121964 16.8621896 157.718309 16.8556388 157.552761 82.1219874 154.956416 82.1285382"></polygon>
                    <polygon id="Rectangle" fill="#738897" fill-rule="nonzero" opacity="0.300000012" transform="translate(153.224147, 57.309054) rotate(-68.160000) translate(-153.224147, -57.309054) " points="152.008749 24.6791552 154.605094 24.6726044 154.439546 89.938953 151.843201 89.9455039"></polygon>
                    <polygon id="Rectangle" fill="#738897" fill-rule="nonzero" opacity="0.300000012" transform="translate(150.124652, 65.106596) rotate(-68.160000) translate(-150.124652, -65.106596) " points="148.909254 32.4766969 151.505599 32.470146 151.340051 97.7364946 148.743705 97.7430455"></polygon>
                    <polygon id="Rectangle" fill="#738897" fill-rule="nonzero" opacity="0.300000012" transform="translate(147.021437, 72.913488) rotate(-68.160000) translate(-147.021437, -72.913488) " points="145.806038 40.283589 148.402383 40.2770382 148.236835 105.543387 145.64049 105.549938"></polygon>
                    <polygon id="Rectangle" fill="#738897" fill-rule="nonzero" opacity="0.300000012" transform="translate(143.908221, 80.730454) rotate(-68.160000) translate(-143.908221, -80.730454) " points="142.692823 48.1005547 145.289168 48.0940038 145.12362 113.360352 142.527274 113.366903"></polygon>
                    <path d="M160.895522,117.058824 L82.2952763,117.058824 C75.1062294,88.1789154 76.8136281,58.83725 82.2952763,29.2647059 L160.895522,29.2647059 C152.812583,57.9652954 152.812583,88.358234 160.895522,117.058824 L160.895522,117.058824 Z" id="Path" fill="#FFFFFF" fill-rule="nonzero"></path>
                    <rect id="Rectangle" fill="#14BBC4" fill-rule="nonzero" x="93.6119403" y="38.0441176" width="48.2686567" height="5.85294118"></rect>
                    <rect id="Rectangle" fill="#738897" fill-rule="nonzero" opacity="0.300000012" x="84.8358209" y="51.2132353" width="65.8208955" height="2.92647059"></rect>
                    <rect id="Rectangle" fill="#738897" fill-rule="nonzero" opacity="0.300000012" x="84.8358209" y="59.9926471" width="65.8208955" height="2.92647059"></rect>
                    <rect id="Rectangle" fill="#738897" fill-rule="nonzero" opacity="0.300000012" x="84.8358209" y="67.3088235" width="65.8208955" height="2.92647059"></rect>
                    <rect id="Rectangle" fill="#738897" fill-rule="nonzero" opacity="0.300000012" x="84.8358209" y="76.0882353" width="65.8208955" height="2.92647059"></rect>
                    <rect id="Rectangle" fill="#738897" fill-rule="nonzero" opacity="0.300000012" x="84.8358209" y="84.8676471" width="65.8208955" height="2.92647059"></rect>
                    <rect id="Rectangle" fill="#738897" fill-rule="nonzero" opacity="0.300000012" x="84.8358209" y="93.6470588" width="65.8208955" height="2.92647059"></rect>
                    <rect id="Rectangle" fill="#738897" fill-rule="nonzero" opacity="0.300000012" x="84.8358209" y="100.963235" width="65.8208955" height="2.92647059"></rect>
                    <path d="M222.328358,198.989951 L222.328358,119.069211 C222.322864,114.5721 218.709179,110.929411 214.253373,110.929415 L113.719313,110.929415 L89.733322,92.107392 C89.2455029,91.2462616 88.3364614,90.7165096 87.3536409,90.7205882 L74.4097686,90.7205882 C72.8975429,90.7205882 71.6716418,91.9578779 71.6716418,93.484123 L71.6716418,199 L222.328358,198.989951 Z" id="Path" fill="#082C46" fill-rule="nonzero"></path>
                    <path d="M32.1791045,199 C32.1791045,199 134.896581,152.908088 258.895522,199" id="Path" fill="#ECEDEF" fill-rule="nonzero"></path>
                    <path d="M244.268657,185.063149 C243.663094,185.822001 242.811243,186.326462 241.872446,186.482169 C241.121893,186.491803 240.508503,187.1051 240.473059,187.881342 C240.473059,187.881342 240.71268,188.685122 237.396324,189.796522 C235.402676,190.461377 234.137477,190.25299 233.409029,189.796522 C233.023922,189.581528 232.727526,189.228815 232.575147,188.804201 C232.354696,187.980574 236.773309,181.689257 236.773309,181.689257 L240.798943,181.441176 L243.674396,182.790733 L244.115299,184.497526 L244.268657,185.063149 Z" id="Path" fill="#000000" fill-rule="nonzero" opacity="0.100000001"></path>
                </g>
            </g>
        </g>
    </g>
</svg>